Mini-project instructions
…
Some of the columns have NAs which will be further explored using the diagnose() function. Our column of interest (yield=value) ranges from 39 to 1265 lb/acre with no NA.

5.3 Exploring column classes and distinct cases

cotton_yield %>%
  diagnose() #gives you a quick overview of the column classes, distinct cases, and missingness

# A tibble: 21 × 6
   variables        types missing_count missing_percent unique_count unique_rate
   <chr>            <chr>         <int>           <dbl>        <int>       <dbl>
 1 Program          char…             0          0                 1   0.0000982
 2 Year             nume…             0          0                96   0.00943  
 3 Period           char…             0          0                 1   0.0000982
 4 Week Ending      logi…         10180        100                 1   0.0000982
 5 Geo Level        char…             0          0                 1   0.0000982
 6 State            char…             0          0                 1   0.0000982
 7 State ANSI       nume…             0          0                 1   0.0000982
 8 Ag District      char…             5          0.0491           10   0.000982 
 9 Ag District Code nume…             0          0                10   0.000982 
10 County           char…             0          0               158   0.0155   
# ℹ 11 more rows
…
